
---------test_data_1001_only_batt

[{'satellite_id': '1001', 'count': 3, 'timestamp': '20180101 23:01:09.521'}]
---------help
{
    "satelliteId": "1001",
    "severity": "RED LOW",
    "component": "BATT",
    "timestamp": "20180101 23:01:09.521"
}
Alert -  BATTERY voltage is LOW
[]
